{
  "userSecretsId": "aspnet-WebApplication1-fc757e02-6038-456f-9879-006b4fcf0576",
  "dependencies": {
    "Microsoft.AspNetCore.Razor.Tools": {
      "version": "1.0.0-preview2-final",
      "type": "build"
    },
    "Microsoft.EntityFrameworkCore.Tools": {
      "version": "1.0.0-preview2-final",
      "type": "build"
    },
    "Microsoft.VisualStudio.Web.CodeGeneration.Tools": {
      "version": "1.0.0-preview2-final",
      "type": "build"
    },
    "Microsoft.VisualStudio.Web.CodeGenerators.Mvc": {
      "version": "1.0.0-preview2-final",
      "type": "build"
    },
    "Microsoft.ApplicationInsights.AspNetCore": "2.0.0",
    "Microsoft.AspNetCore.Authentication.Cookies": "1.1.0",
    "Microsoft.AspNetCore.Diagnostics": "1.1.0",
    "Microsoft.AspNetCore.Diagnostics.EntityFrameworkCore": "1.1.0",
    "Microsoft.AspNetCore.Identity.EntityFrameworkCore": "1.1.0",
    "Microsoft.AspNetCore.Mvc": "1.1.1",
    "Microsoft.AspNetCore.Routing": "1.1.0",
    "Microsoft.AspNetCore.Server.IISIntegration": "1.1.0",
    "Microsoft.AspNetCore.Server.Kestrel": "1.1.0",
    "Microsoft.AspNetCore.StaticFiles": "1.1.0",
    "Microsoft.EntityFrameworkCore.SqlServer": "1.1.0",
    "Microsoft.EntityFrameworkCore.SqlServer.Design": {
      "version": "1.1.0",
      "type": "build"
    },
    "Microsoft.Extensions.Configuration.EnvironmentVariables": "1.1.0",
    "Microsoft.Extensions.Configuration.Json": "1.1.0",
    "Microsoft.Extensions.Configuration.UserSecrets": "1.1.0",
    "Microsoft.Extensions.Logging": "1.1.0",
    "Microsoft.Extensions.Logging.Console": "1.1.0",
    "Microsoft.Extensions.Logging.Debug": "1.1.0",
    "Microsoft.Extensions.Options.ConfigurationExtensions": "1.1.0",
    "Microsoft.NETCore.App": {
      "version": "1.1.0",
      "type": "platform"
    },
    "Microsoft.VisualStudio.Web.BrowserLink.Loader": "14.1.0",
    "System.Linq.Parallel": "4.0.1"
  },
  "tools": {
    "BundlerMinifier.Core": "2.2.306",
    "Microsoft.AspNetCore.Razor.Tools": "1.0.0-preview2-final",
    "Microsoft.AspNetCore.Server.IISIntegration.Tools": "1.0.0-preview2-final",
    "Microsoft.EntityFrameworkCore.Tools": "1.0.0-preview2-final",
    "Microsoft.Extensions.SecretManager.Tools": "1.0.0-preview2-final",
    "Microsoft.VisualStudio.Web.CodeGeneration.Tools": {
      "version": "1.0.0-preview2-final",
      "imports": [
        "portable-net45+win8"
      ]
    }
  },
  "frameworks": {
    "netcoreapp1.0": {
      "imports": [
        "dotnet5.6",
        "portable-net45+win8"
      ]
    }
  },
  "buildOptions": {
    "emitEntryPoint": true,
    "preserveCompilationContext": true,
    "debugType": "portable"
  },
  "runtimeOptions": {
    "configProperties": {
      "System.GC.Server": true
    }
  },
  "publishOptions": {
    "include": [
      "wwwroot",
      "**/*.cshtml",
      "appsettings.json",
      "web.config",
      "docker-compose.yml",
      "Dockerfile",
      ".dockerignore"
    ]
  },
  "scripts": {
    "prepublish": [
      "bower install",
      "dotnet bundle"
    ],
    "postpublish": [
      "dotnet publish-iis --publish-folder %publish:OutputPath% --framework %publish:FullTargetFramework%"
    ]
  }
}